…
```
## Warning: Returning more (or less) than 1 row per `summarise()` group was deprecated in
## dplyr 1.1.0.
## ℹ Please use `reframe()` instead.
## ℹ When switching from `summarise()` to `reframe()`, remember that `reframe()`
##   always returns an ungrouped data frame and adjust accordingly.
## Call `lifecycle::last_lifecycle_warnings()` to see where this warning was
## generated.
```

```
## # A tibble: 151 × 3
## # Groups:   country [4]
##    country      year   cpi
##    <chr>       <dbl> <dbl>
##  1 Switzerland  1872 17.0 
##  2 Switzerland  1876 15.4 
##  3 Switzerland  1880 13.2 
##  4 Switzerland  1884 10.8 
##  5 Switzerland  1888  9.30
##  6 Switzerland  1892 10.6 
##  7 Switzerland  1896  9.92
##  8 Switzerland  1900  9.76
##  9 Switzerland  1904 10.1 
## 10 Switzerland  1908 11.2 
## # ℹ 141 more rows
```
…
